{
    "frame": {
        "prefix": "frame",
        "body": [
            "\\begin{frame}{$1}",
            "\t$0",
            "\\end{frame}"
        ]
    },
    "cols": {
        "prefix": "cols",
        "body": [
            "\\begin{columns}",
            "\t$0",
            "\\end{columns}"
        ]
    },
    "col": {
        "prefix": "col",
        "body": [
            "\\begin{column}{${1:0.5}${2:\\textwidth}}",
            "\t$0",
            "\\end{column}"
        ]
    },
    "itemize": {
        "prefix": "itemize",
        "body": [
            "\\begin{itemize}",
            "\t$0",
            "\\end{itemize}"
        ],
        "description": "\\item"
    },
    "item": {
        "prefix": "item",
        "body": "\\item{$0}",
        "description": "\\item"
    },
    "includegraphics": {
        "prefix": "includegraphics",
        "body": "\\includegraphics[width=${1:0.9\\textwidth}]{$0}",
        "description": "Raw includegraphics"
    },
    "lstlisting": {
        "prefix": "lstlisting",
        "body": [
            "\\begin{lstlisting}[language=${1}]",
            "\t${2}",
            "\\end{lstlisting}"
        ]
    },
    "ttt": {
        "prefix": "ttt",
        "body": [
            "\\texttt{$1}"
        ]
    },
    "bf": {
        "prefix": "bf",
        "body": [
            "\\textbf{$1}"
        ]
    }
}
